[
    {
        "nid": "Althea",
        "blinking_offset": [
            22,
            39
        ],
        "smiling_offset": [
            22,
            55
        ],
        "info_offset": 0
    },
    {
        "nid": "AltheaQueen",
        "blinking_offset": [
            22,
            39
        ],
        "smiling_offset": [
            22,
            55
        ],
        "info_offset": 0
    },
    {
        "nid": "Coyote",
        "blinking_offset": [
            26,
            28
        ],
        "smiling_offset": [
            16,
            44
        ],
        "info_offset": 0
    },
    {
        "nid": "Drake",
        "blinking_offset": [
            16,
            26
        ],
        "smiling_offset": [
            16,
            42
        ],
        "info_offset": 0
    },
    {
        "nid": "Eliza",
        "blinking_offset": [
            24,
            32
        ],
        "smiling_offset": [
            24,
            48
        ],
        "info_offset": 0
    },
    {
        "nid": "Joel",
        "blinking_offset": [
            24,
            24
        ],
        "smiling_offset": [
            16,
            40
        ],
        "info_offset": 0
    },
    {
        "nid": "Kayla",
        "blinking_offset": [
            32,
            24
        ],
        "smiling_offset": [
            32,
            40
        ],
        "info_offset": 0
    },
    {
        "nid": "Nia",
        "blinking_offset": [
            24,
            32
        ],
        "smiling_offset": [
            24,
            48
        ],
        "info_offset": 0
    },
    {
        "nid": "Ophie",
        "blinking_offset": [
            24,
            32
        ],
        "smiling_offset": [
            24,
            48
        ],
        "info_offset": 0
    },
    {
        "nid": "Prim",
        "blinking_offset": [
            20,
            32
        ],
        "smiling_offset": [
            20,
            48
        ],
        "info_offset": 0
    },
    {
        "nid": "Renae",
        "blinking_offset": [
            20,
            32
        ],
        "smiling_offset": [
            12,
            48
        ],
        "info_offset": 0
    },
    {
        "nid": "Sam",
        "blinking_offset": [
            25,
            23
        ],
        "smiling_offset": [
            25,
            39
        ],
        "info_offset": 0
    },
    {
        "nid": "Theo",
        "blinking_offset": [
            16,
            24
        ],
        "smiling_offset": [
            16,
            40
        ],
        "info_offset": 0
    },
    {
        "nid": "Adjutant",
        "blinking_offset": [
            16,
            24
        ],
        "smiling_offset": [
            16,
            40
        ],
        "info_offset": 0
    },
    {
        "nid": "Anders",
        "blinking_offset": [
            24,
            24
        ],
        "smiling_offset": [
            24,
            36
        ],
        "info_offset": 0
    },
    {
        "nid": "Boaz",
        "blinking_offset": [
            16,
            24
        ],
        "smiling_offset": [
            16,
            40
        ],
        "info_offset": 0
    },
    {
        "nid": "Brigham",
        "blinking_offset": [
            17,
            24
        ],
        "smiling_offset": [
            17,
            40
        ],
        "info_offset": 0
    },
    {
        "nid": "Harold",
        "blinking_offset": [
            16,
            24
        ],
        "smiling_offset": [
            12,
            43
        ],
        "info_offset": 0
    },
    {
        "nid": "Jakin",
        "blinking_offset": [
            16,
            24
        ],
        "smiling_offset": [
            16,
            40
        ],
        "info_offset": 0
    },
    {
        "nid": "Jules",
        "blinking_offset": [
            24,
            32
        ],
        "smiling_offset": [
            24,
            48
        ],
        "info_offset": 0
    },
    {
        "nid": "Kiley",
        "blinking_offset": [
            24,
            24
        ],
        "smiling_offset": [
            24,
            40
        ],
        "info_offset": 0
    },
    {
        "nid": "Marduk",
        "blinking_offset": [
            24,
            24
        ],
        "smiling_offset": [
            24,
            40
        ],
        "info_offset": 0
    },
    {
        "nid": "Midas",
        "blinking_offset": [
            16,
            32
        ],
        "smiling_offset": [
            16,
            40
        ],
        "info_offset": 0
    },
    {
        "nid": "Razia",
        "blinking_offset": [
            24,
            29
        ],
        "smiling_offset": [
            24,
            41
        ],
        "info_offset": 0
    },
    {
        "nid": "Sidney",
        "blinking_offset": [
            24,
            24
        ],
        "smiling_offset": [
            24,
            40
        ],
        "info_offset": 0
    },
    {
        "nid": "Ulver",
        "blinking_offset": [
            16,
            16
        ],
        "smiling_offset": [
            16,
            36
        ],
        "info_offset": 0
    },
    {
        "nid": "Vagnius",
        "blinking_offset": [
            24,
            24
        ],
        "smiling_offset": [
            24,
            40
        ],
        "info_offset": 0
    },
    {
        "nid": "Vincent",
        "blinking_offset": [
            24,
            24
        ],
        "smiling_offset": [
            24,
            40
        ],
        "info_offset": 0
    },
    {
        "nid": "Yohn",
        "blinking_offset": [
            24,
            24
        ],
        "smiling_offset": [
            24,
            40
        ],
        "info_offset": 0
    },
    {
        "nid": "Man1",
        "blinking_offset": [
            24,
            24
        ],
        "smiling_offset": [
            16,
            40
        ],
        "info_offset": 0
    },
    {
        "nid": "Man4",
        "blinking_offset": [
            24,
            32
        ],
        "smiling_offset": [
            16,
            48
        ],
        "info_offset": 0
    },
    {
        "nid": "Man5",
        "blinking_offset": [
            24,
            24
        ],
        "smiling_offset": [
            16,
            40
        ],
        "info_offset": 0
    },
    {
        "nid": "OldMan1",
        "blinking_offset": [
            16,
            40
        ],
        "smiling_offset": [
            16,
            56
        ],
        "info_offset": 0
    },
    {
        "nid": "Woman1",
        "blinking_offset": [
            24,
            32
        ],
        "smiling_offset": [
            24,
            48
        ],
        "info_offset": 0
    },
    {
        "nid": "Woman2",
        "blinking_offset": [
            24,
            32
        ],
        "smiling_offset": [
            16,
            48
        ],
        "info_offset": 0
    },
    {
        "nid": "OldLady1",
        "blinking_offset": [
            16,
            32
        ],
        "smiling_offset": [
            16,
            48
        ],
        "info_offset": 0
    },
    {
        "nid": "Boy2",
        "blinking_offset": [
            24,
            40
        ],
        "smiling_offset": [
            16,
            56
        ],
        "info_offset": 0
    },
    {
        "nid": "Bandit1",
        "blinking_offset": [
            16,
            24
        ],
        "smiling_offset": [
            16,
            48
        ],
        "info_offset": 0
    },
    {
        "nid": "SoldierRed",
        "blinking_offset": [
            24,
            24
        ],
        "smiling_offset": [
            24,
            48
        ],
        "info_offset": 0
    },
    {
        "nid": "SoldierBlue",
        "blinking_offset": [
            24,
            24
        ],
        "smiling_offset": [
            24,
            48
        ],
        "info_offset": 0
    },
    {
        "nid": "SoldierGrey",
        "blinking_offset": [
            24,
            24
        ],
        "smiling_offset": [
            24,
            48
        ],
        "info_offset": 0
    },
    {
        "nid": "SoldierGreen",
        "blinking_offset": [
            24,
            24
        ],
        "smiling_offset": [
            24,
            48
        ],
        "info_offset": 0
    },
    {
        "nid": "Jack",
        "blinking_offset": [
            24,
            24
        ],
        "smiling_offset": [
            24,
            40
        ],
        "info_offset": 0
    },
    {
        "nid": "Jeb",
        "blinking_offset": [
            24,
            24
        ],
        "smiling_offset": [
            24,
            40
        ],
        "info_offset": 0
    },
    {
        "nid": "Mage1",
        "blinking_offset": [
            24,
            24
        ],
        "smiling_offset": [
            16,
            40
        ],
        "info_offset": 0
    }
]