[
    [
        "num_items",
        5
    ],
    [
        "num_accessories",
        0
    ],
    [
        "turnwheel",
        true
    ],
    [
        "initiative",
        false
    ],
    [
        "fatigue",
        false
    ],
    [
        "reset_fatigue",
        false
    ],
    [
        "minimap",
        true
    ],
    [
        "pairup",
        false
    ],
    [
        "limit_attack_stance",
        false
    ],
    [
        "attack_stance_only",
        true
    ],
    [
        "player_pairup_only",
        true
    ],
    [
        "lead",
        false
    ],
    [
        "bexp",
        false
    ],
    [
        "rd_bexp_lvl",
        false
    ],
    [
        "support",
        false
    ],
    [
        "overworld",
        false
    ],
    [
        "overworld_start",
        false
    ],
    [
        "unit_notes",
        false
    ],
    [
        "crit",
        false
    ],
    [
        "reset_uses",
        true
    ],
    [
        "long_range_storage",
        true
    ],
    [
        "allow_negative_as",
        false
    ],
    [
        "trade",
        true
    ],
    [
        "growth_info",
        true
    ],
    [
        "alt_growth_format",
        false
    ],
    [
        "glancing_hit",
        false
    ],
    [
        "backpropagate_difficulty_growths",
        true
    ],
    [
        "traveler_time_decrement",
        false
    ],
    [
        "line_of_sight",
        true
    ],
    [
        "aura_los",
        true
    ],
    [
        "fog_los",
        false
    ],
    [
        "ai_fog_of_war",
        false
    ],
    [
        "def_double",
        false
    ],
    [
        "unit_stats_as_bonus",
        false
    ],
    [
        "enemy_leveling",
        "Fixed"
    ],
    [
        "auto_promote",
        true
    ],
    [
        "promote_skill_inheritance",
        true
    ],
    [
        "promote_level_reset",
        true
    ],
    [
        "class_change_level_reset",
        false
    ],
    [
        "learn_skills_on_reclass",
        true
    ],
    [
        "learn_skills_on_promote",
        true
    ],
    [
        "negative_growths",
        true
    ],
    [
        "class_change_same_tier",
        false
    ],
    [
        "generic_feats",
        false
    ],
    [
        "min_damage",
        0
    ],
    [
        "boss_crit",
        false
    ],
    [
        "battle_platforms",
        true
    ],
    [
        "roam_hide_hp",
        false
    ],
    [
        "autogenerate_grey_map_sprites",
        true
    ],
    [
        "translucent_unit_sprite",
        false
    ],
    [
        "talk_display",
        false
    ],
    [
        "show_abilities",
        false
    ],
    [
        "info_menu_blink",
        true
    ],
    [
        "convoy_on_death",
        true
    ],
    [
        "repair_shop",
        false
    ],
    [
        "sound_room_in_codex",
        true
    ],
    [
        "give_and_take",
        true
    ],
    [
        "combat_art_category",
        false
    ],
    [
        "reset_mana",
        false
    ],
    [
        "double_splash",
        false
    ],
    [
        "num_save_slots",
        3
    ],
    [
        "sell_modifier",
        0.5
    ],
    [
        "attack_zero_hit",
        false
    ],
    [
        "attack_zero_dam",
        false
    ],
    [
        "zero_move",
        true
    ],
    [
        "game_nid",
        "LionThrone"
    ],
    [
        "title",
        "The Lion Throne"
    ],
    [
        "title_particles",
        true
    ],
    [
        "title_sound",
        true
    ],
    [
        "music_main",
        "Helms Deep"
    ],
    [
        "music_promotion",
        null
    ],
    [
        "music_class_change",
        null
    ],
    [
        "music_game_over",
        "Game Over"
    ],
    [
        "restart_phase_music",
        false
    ],
    [
        "restart_battle_music",
        true
    ],
    [
        "kill_wexp",
        false
    ],
    [
        "double_wexp",
        false
    ],
    [
        "miss_wexp",
        true
    ],
    [
        "exp_curve",
        0.22
    ],
    [
        "exp_magnitude",
        11.7
    ],
    [
        "exp_offset",
        0
    ],
    [
        "gexp_max",
        30
    ],
    [
        "gexp_min",
        1
    ],
    [
        "gexp_slope",
        0.25
    ],
    [
        "gexp_intercept",
        10
    ],
    [
        "exp_formula",
        "standard"
    ],
    [
        "kill_multiplier",
        2.5
    ],
    [
        "boss_bonus",
        40
    ],
    [
        "min_exp",
        1
    ],
    [
        "default_exp",
        15
    ],
    [
        "heal_curve",
        1.0
    ],
    [
        "heal_magnitude",
        0
    ],
    [
        "heal_offset",
        7.0
    ],
    [
        "heal_min",
        5
    ]
]